Division,WeightClassKg,Place,Name,Team,BodyweightKg,Best3SquatKg,Best3BenchKg,Best3DeadliftKg,TotalKg,Equipment,Event,Sex
Boys,51.71,1,Oscar Trejo,Sunray,50.98,142.88,56.7,149.69,349.27,Single-ply,SBD,M
Boys,51.71,2,Gabriel Hancock,Bovina,51.26,120.2,74.84,138.35,333.39,Single-ply,SBD,M
Boys,51.71,3,Ivan Antuna,Plainview,48.53,124.74,65.77,124.74,315.25,Single-ply,SBD,M
Boys,51.71,4,Zack Tovar,Abernathy,51.71,115.67,74.84,115.67,306.17,Single-ply,SBD,M
Boys,51.71,5,Carlos Bravo,Olton,49.08,104.33,68.04,124.74,297.1,Single-ply,SBD,M
Boys,51.71,6,Andrew Loera,Wellman-Union,50.89,97.52,58.97,127.01,283.5,Single-ply,SBD,M
Boys,51.71,7,Arturo Aguillon,Bovina,51.26,92.99,52.16,111.13,256.28,Single-ply,SBD,M
Boys,51.71,8,Freddy Pavez,Panhandle,50.08,95.25,52.16,104.33,251.74,Single-ply,SBD,M
Boys,51.71,9,Ryan Shemwell,Panhandle,50.8,97.52,52.16,102.06,251.74,Single-ply,SBD,M
Boys,55.79,10,Christian Botello,Dumas,51.89,83.91,52.16,99.79,235.87,Single-ply,SBD,M
Boys,51.71,DQ,Weston Grizwold,Lazbuddie,50.89,149.69,,,,Single-ply,SBD,M
Boys,55.79,1,Andy Duarte,Bovina,55.57,151.95,81.65,154.22,387.82,Single-ply,SBD,M
Boys,55.79,2,Julian Gaspar,Sunray,54.88,136.08,63.5,147.42,347,Single-ply,SBD,M
Boys,55.79,3,Marcus Renteria,Lamesa,55.25,124.74,79.38,136.08,340.19,Single-ply,SBD,M
Boys,55.79,4,Frankie Mendoza,Abernathy,53.89,102.06,74.84,145.15,322.05,Single-ply,SBD,M
Boys,55.79,5,Juan Pinella,Bovina,53.07,106.59,63.5,124.74,294.84,Single-ply,SBD,M
Boys,55.79,6,Eddie Fierro,Sunray,53.07,111.13,56.7,106.59,274.42,Single-ply,SBD,M
Boys,55.79,7,Erli Rueda,Bovina,55.57,99.79,45.36,124.74,269.89,Single-ply,SBD,M
Boys,59.87,1,Ben Alvarez,Floydada,59.51,158.76,102.06,181.44,442.25,Single-ply,SBD,M
Boys,59.87,2,Jonathan Valderas,Levelland,56.61,181.44,92.99,154.22,428.64,Single-ply,SBD,M
Boys,59.87,3,Bobby Clift,Canyon Randall,58.42,149.69,92.99,156.49,399.16,Single-ply,SBD,M
Boys,59.87,4,Kiley Davila,Wellman-Union,58.69,149.69,92.99,151.95,394.63,Single-ply,SBD,M
Boys,59.87,5,Carlos Sosa,Muleshoe,59.78,158.76,72.57,158.76,390.09,Single-ply,SBD,M
Boys,59.87,6,Sean Felker,Borger,58.51,142.88,83.91,161.03,387.82,Single-ply,SBD,M
Boys,59.87,7,Rye Akervik,Panhandle,58.79,142.88,81.65,158.76,383.29,Single-ply,SBD,M
Boys,59.87,8,Ryan Bybee,Dumas,59.69,127.01,68.04,163.29,358.34,Single-ply,SBD,M
Boys,59.87,9,Corn Ortiz,Bovina,56.7,133.81,65.77,156.49,356.07,Single-ply,SBD,M
Boys,59.87,10,Ramiro Nicolas,Bovina,56.7,129.27,79.38,145.15,353.8,Single-ply,SBD,M
Boys,59.87,11,Cesar Medrano,Sudan,59.06,122.47,74.84,138.35,335.66,Single-ply,SBD,M
Boys,59.87,12,Nolan Willingham,Canyon Randall,59.42,113.4,79.38,142.88,335.66,Single-ply,SBD,M
Boys,59.87,13,Omero Bonilla,Sunray,56.97,131.54,74.84,115.67,322.05,Single-ply,SBD,M
Boys,59.87,14,Oscar Jasso,Bovina,59.42,92.99,56.7,129.27,278.96,Single-ply,SBD,M
Boys,59.87,15,Zack Wilkins,Plains,56.7,86.18,52.16,117.93,256.28,Single-ply,SBD,M
Boys,59.87,16,Adam Jones #6,Panhandle,57.15,74.84,43.09,104.33,222.26,Single-ply,SBD,M
Boys,59.87,DQ,Jorge Luna,Bovina,59.42,136.08,90.72,,,Single-ply,SBD,M
Boys,67.13,1,Alfredo Sanchez,Muleshoe,63.5,179.17,90.72,181.44,451.32,Single-ply,SBD,M
Boys,67.13,2,Gage Rowden,Wellman-Union,66.13,158.76,90.72,170.1,419.57,Single-ply,SBD,M
Boys,67.13,3,Cullen Holt,Plainview,65.14,167.83,77.11,167.83,412.77,Single-ply,SBD,M
Boys,67.13,4,Gilbert Rocha,Canyon Randall,64.23,147.42,106.59,154.22,408.23,Single-ply,SBD,M
Boys,67.13,5,Noah DiSalvo,Plainview,65.14,142.88,90.72,174.63,408.23,Single-ply,SBD,M
Boys,67.13,6,Dominic Baca,Dalhart,63.96,151.95,92.99,149.69,394.63,Single-ply,SBD,M
Boys,67.13,7,Tyler Gano,Canyon Randall,65.32,149.69,81.65,156.49,387.82,Single-ply,SBD,M
Boys,67.13,8,Guellermo Davilla,Dalhart,66.22,154.22,74.84,158.76,387.82,Single-ply,SBD,M
Boys,67.13,9,Franky Medina,Dalhart,65.05,158.76,83.91,142.88,385.55,Single-ply,SBD,M
Boys,67.13,10,Julian Navarez,Dumas,60.96,131.54,92.99,154.22,378.75,Single-ply,SBD,M
Boys,67.13,11,Hunter Tollison,Borger,62.05,129.27,79.38,158.76,367.41,Single-ply,SBD,M
Boys,67.13,12,Austin Ross,Muleshoe,65.86,127.01,81.65,158.76,367.41,Single-ply,SBD,M
Boys,67.13,13,Miguel Herrera,Sunray,64.77,142.88,74.84,142.88,360.61,Single-ply,SBD,M
Boys,67.13,14,Brady Boyd,Bushland,66.22,120.2,77.11,147.42,344.73,Single-ply,SBD,M
Boys,67.13,15,Trinidad Ruiz,Plains,61.78,117.93,79.38,145.15,342.46,Single-ply,SBD,M
Boys,67.13,16,Eddy Garcia,Friona,62.14,129.27,63.5,147.42,340.19,Single-ply,SBD,M
Boys,67.13,17,Cole Gatzki,Plains,61.96,127.01,74.84,136.08,337.93,Single-ply,SBD,M
Boys,67.13,18,Manuel Quezava,Plains,62.41,122.47,74.84,140.61,337.93,Single-ply,SBD,M
Boys,67.13,19,Junior Trania,Muleshoe,62.6,129.27,68.04,138.35,335.66,Single-ply,SBD,M
Boys,67.13,20,Rushie McKenzie,Wellman-Union,64.86,113.4,83.91,136.08,333.39,Single-ply,SBD,M
Boys,67.13,21,John Hernandez,Bushland,61.05,117.93,65.77,120.2,303.91,Single-ply,SBD,M
Boys,67.13,22,Miguel Dominguez,Bovina,64.86,102.06,61.23,129.27,292.57,Single-ply,SBD,M
Boys,67.13,23,Abel Martinez,Bovina,66.22,99.79,52.16,127.01,278.96,Single-ply,SBD,M
Boys,67.13,24,Jorge Jaramillo,Bovina,64.86,90.72,70.31,113.4,274.42,Single-ply,SBD,M
Boys,67.13,25,Jairo Salas,Bovina,61.23,81.65,47.63,97.52,226.8,Single-ply,SBD,M
Boys,67.13,DQ,Adrian Chavez,Panhandle,63.23,52.16,,,,Single-ply,SBD,M
Boys,67.13,DQ,Marco Terrones,Friona,64.18,,,,,Single-ply,SBD,M
Boys,67.13,DQ,Kyle Stroud,Stinnett West Texas,62.51,154.22,,,,Single-ply,SBD,M
Boys,74.84,1,John Crutcher,Wellman-Union,72.39,181.44,120.2,199.58,501.22,Single-ply,SBD,M
Boys,74.84,2,Caleb Morales,Lamesa,74.84,199.58,102.06,167.83,469.47,Single-ply,SBD,M
Boys,74.84,3,Pablo Jimenez,Plainview,72.76,183.7,99.79,183.7,467.2,Single-ply,SBD,M
Boys,74.84,4,Nick Stephens,Panhandle,74.21,179.17,77.11,197.31,453.59,Single-ply,SBD,M
Boys,74.84,5,Edward Jalomo,Olton,70.67,158.76,106.59,170.1,435.45,Single-ply,SBD,M
Boys,74.84,6,Christian Axelsen,Sunray,74.84,142.88,102.06,158.76,403.7,Single-ply,SBD,M
Boys,74.84,7,Justin Esch,Plains,71.85,136.08,79.38,170.1,385.55,Single-ply,SBD,M
Boys,74.84,8,Jorge Arroyo,Sunray,73.84,154.22,79.38,142.88,376.48,Single-ply,SBD,M
Boys,82.1,9,Adrian Prieto,Friona,75.07,142.88,83.91,149.69,376.48,Single-ply,SBD,M
Boys,74.84,10,Dallas Cox,Lazbuddie,71.94,113.4,79.38,167.83,360.61,Single-ply,SBD,M
Boys,74.84,11,Kit Watson,Bushland,72.21,131.54,83.91,136.08,351.53,Single-ply,SBD,M
Boys,74.84,12,Alejandro Guevara,Bovina,72.57,136.08,70.31,145.15,351.53,Single-ply,SBD,M
Boys,74.84,13,Nick Anna,Plains,72.21,117.93,63.5,161.03,342.46,Single-ply,SBD,M
Boys,82.1,14,Alex Ovalle,Friona,75.07,136.08,70.31,136.08,342.46,Single-ply,SBD,M
Boys,74.84,15,Collin Galloway,Borger,69.85,133.81,65.77,140.61,340.19,Single-ply,SBD,M
Boys,74.84,16,David Velo,Bovina,73.94,108.86,68.04,138.35,315.25,Single-ply,SBD,M
Boys,74.84,17,Stephon Knoll,Bovina,70.76,97.52,77.11,129.27,303.91,Single-ply,SBD,M
Boys,74.84,18,Alexis Oliva,Bovina,73.03,97.52,63.5,99.79,260.82,Single-ply,SBD,M
Boys,74.84,19,Hector Lopez,Bovina,70.31,95.25,56.7,102.06,254.01,Single-ply,SBD,M
Boys,74.84,DQ,Abdiel Ramos,Bovina,73.94,142.88,88.45,,,Single-ply,SBD,M
Boys,82.1,DQ,Michael Garcia,Friona,75.07,165.56,,,,Single-ply,SBD,M
Boys,74.84,DQ,Tucker Crowley,Sunray,69.13,131.54,68.04,,,Single-ply,SBD,M
Boys,74.84,DQ,Alexis Mendoza,Sunray,69.22,129.27,86.18,,,Single-ply,SBD,M
Boys,82.1,1,Dylan Winkle,Borger,80.65,233.6,127.01,233.6,594.21,Single-ply,SBD,M
Boys,82.1,2,Ty Brown,Borger,80.47,222.26,127.01,199.58,548.85,Single-ply,SBD,M
Boys,82.1,3,Jeremy Mandrel,Olton,78.47,181.44,102.06,215.46,498.95,Single-ply,SBD,M
Boys,82.1,4,Jhett Wilcox,Whiteface,79.56,181.44,113.4,201.85,496.68,Single-ply,SBD,M
Boys,82.1,5,Isaac Moran,Dumas,79.47,185.97,104.33,201.85,492.15,Single-ply,SBD,M
Boys,82.1,6,Andrew Dunlap,Plainview,81.28,185.97,120.2,176.9,483.08,Single-ply,SBD,M
Boys,82.1,7,Anthony Ortiz,Bovina,80.51,161.03,113.4,179.17,453.59,Single-ply,SBD,M
Boys,82.1,8,Luis Davilla,Dalhart,77.84,158.76,92.99,197.31,449.06,Single-ply,SBD,M
Boys,82.1,9,Zach Ponder,Plainview,76.75,188.24,81.65,170.1,439.98,Single-ply,SBD,M
Boys,82.1,10,Quentin Valentine,Plainview,79.29,176.9,90.72,167.83,435.45,Single-ply,SBD,M
Boys,82.1,11,Chris Hinojos,Plainview,79.65,176.9,88.45,163.29,428.64,Single-ply,SBD,M
Boys,82.1,12,Cory Throgmorton,Panhandle,77.66,136.08,83.91,158.76,378.75,Single-ply,SBD,M
Boys,82.1,13,Tony Rivas,Plainview,78.56,142.88,88.45,142.88,374.21,Single-ply,SBD,M
Boys,82.1,14,Jose Trejo,Sudan,75.66,120.2,72.57,151.95,344.73,Single-ply,SBD,M
Boys,82.1,15,Evaristo Rodriguez,Levelland,75.39,113.4,83.91,136.08,333.39,Single-ply,SBD,M
Boys,82.1,16,Zach Castillo,Bovina,80.74,115.67,70.31,147.42,333.39,Single-ply,SBD,M
Boys,82.1,17,Edwin Delgado,Sudan,77.93,117.93,68.04,136.08,322.05,Single-ply,SBD,M
Boys,82.1,18,Cory Free,Panhandle,78.74,97.52,70.31,113.4,281.23,Single-ply,SBD,M
Boys,82.1,DQ,Jake Reeves,Canyon Randall,82.05,172.37,,,,Single-ply,SBD,M
Boys,99.79,1,Duncan Welch,Friona,90.04,206.38,147.42,222.26,576.06,Single-ply,SBD,M
Boys,89.81,2,Cj Litterell,Borger,89.54,210.92,151.95,199.58,562.45,Single-ply,SBD,M
Boys,89.81,3,Lasalle Washington,Levelland,83.73,231.33,120.2,208.65,560.19,Single-ply,SBD,M
Boys,89.81,4,Richie Allen,Wellman-Union,88.27,213.19,113.4,226.8,553.38,Single-ply,SBD,M
Boys,89.81,5,Rex Mathis,Floydada,86.55,210.92,113.4,210.92,535.24,Single-ply,SBD,M
Boys,89.81,6,Royce Strader,Muleshoe,84.28,204.12,115.67,201.85,521.63,Single-ply,SBD,M
Boys,89.81,7,Octavius Ledbetter,Memphis,89.27,217.72,106.59,176.9,501.22,Single-ply,SBD,M
Boys,89.81,8,Mason Cook,Vega,89.81,190.51,133.81,176.9,501.22,Single-ply,SBD,M
Boys,89.81,9,Shawn Lindsey,Sunray,86.45,188.24,122.47,188.24,498.95,Single-ply,SBD,M
Boys,89.81,10,Matthew Samarron,Lazbuddie,86.64,195.04,104.33,192.78,492.15,Single-ply,SBD,M
Boys,89.81,11,Edward Rojas,Friona,83.46,195.04,97.52,195.04,487.61,Single-ply,SBD,M
Boys,89.81,12,Juan Chavira,Dalhart,88.18,183.7,106.59,197.31,487.61,Single-ply,SBD,M
Boys,89.81,13,Kane Isaacks,Levelland,83.1,167.83,106.59,204.12,478.54,Single-ply,SBD,M
Boys,89.81,14,Gerardo Urquidiz,Sunray,89.36,201.85,97.52,179.17,478.54,Single-ply,SBD,M
Boys,89.81,15,Ignacio Jimenez,Lamesa,89.27,192.78,111.13,165.56,469.47,Single-ply,SBD,M
Boys,89.81,16,Josh Hull,Sunray,87.45,165.56,113.4,183.7,462.66,Single-ply,SBD,M
Boys,89.81,17,Shelby Shultz,Canyon,84.1,174.63,99.79,183.7,458.13,Single-ply,SBD,M
Boys,89.81,18,Anthony Tapia,Friona,88.45,167.83,102.06,165.56,435.45,Single-ply,SBD,M
Boys,89.81,19,Tommy Inthrath,Dumas,83.28,181.44,86.18,158.76,426.38,Single-ply,SBD,M
Boys,89.81,20,Max Zapata,Sunray,88.72,172.37,77.11,172.37,421.84,Single-ply,SBD,M
Boys,89.81,21,Alex Mejia,Bovina,88.9,163.29,90.72,165.56,419.57,Single-ply,SBD,M
Boys,89.81,22,Angel Fierro,Levelland,83.01,158.76,92.99,163.29,415.04,Single-ply,SBD,M
Boys,89.81,23,Guillermo Flores,Plainview,88.18,161.03,79.38,163.29,403.7,Single-ply,SBD,M
Boys,89.81,24,Luis Tafoya,Bovina,88.68,147.42,83.91,170.1,401.43,Single-ply,SBD,M
Boys,89.81,25,Daniel Soltero,Friona,83.01,145.15,86.18,161.03,392.36,Single-ply,SBD,M
Boys,89.81,26,Abel Palacios,Friona,84.82,151.95,72.57,165.56,390.09,Single-ply,SBD,M
Boys,89.81,27,Jesus Casteneda,Bovina,87.54,131.54,99.79,154.22,385.55,Single-ply,SBD,M
Boys,89.81,28,Jerardo Ruelas,Levelland,85.64,145.15,99.79,136.08,381.02,Single-ply,SBD,M
Boys,89.81,29,Justin Curtis,Bovina,89.58,145.15,81.65,151.95,378.75,Single-ply,SBD,M
Boys,89.81,30,Javier Torres,Dalhart,85.91,142.88,83.91,142.88,369.68,Single-ply,SBD,M
Boys,99.79,1,Juan DeOchoa,Floydada,99.79,217.72,158.76,247.21,623.69,Single-ply,SBD,M
Boys,99.79,2,Miles McKinney,Borger,90.81,215.46,138.35,215.46,569.26,Single-ply,SBD,M
Boys,99.79,3,Brett Cummings,Stinnett West Texas,96.98,215.46,129.27,219.99,564.72,Single-ply,SBD,M
Boys,99.79,4,Zack Sperazza,Canyon Randall,90.9,204.12,129.27,210.92,544.31,Single-ply,SBD,M
Boys,99.79,5,Cameron Patterson,Dumas,98.25,199.58,115.67,210.92,526.17,Single-ply,SBD,M
Boys,99.79,6,Danny Montelongo,Plainview,96.16,204.12,120.2,199.58,523.9,Single-ply,SBD,M
Boys,99.79,7,Shane Smith,Levelland,90.08,213.19,108.86,199.58,521.63,Single-ply,SBD,M
Boys,99.79,8,Matt Cruz,Abernathy,99.79,213.19,106.59,201.85,521.63,Single-ply,SBD,M
Boys,99.79,9,Eddie Campos,Levelland,90.99,181.44,124.74,158.76,464.93,Single-ply,SBD,M
Boys,99.79,10,Tanner Patterson,Canyon,97.16,181.44,111.13,172.37,464.93,Single-ply,SBD,M
Boys,99.79,11,Aiden Lopez,Plainview,96.43,185.97,102.06,154.22,442.25,Single-ply,SBD,M
Boys,99.79,12,Gabrial Gonzales,Plainview,94.08,170.1,102.06,165.56,437.72,Single-ply,SBD,M
Boys,99.79,13,Tanner Barnett,Panhandle,95.98,156.49,79.38,142.88,378.75,Single-ply,SBD,M
Boys,99.79,DQ,Ryan Johnson #22,Muleshoe,91.08,190.51,108.86,,,Single-ply,SBD,M
Boys,109.77,1,Steven Leyendecker,Plainview,107.23,256.28,127.01,226.8,610.08,Single-ply,SBD,M
Boys,109.77,2,Joseph DeOchoa,Floydada,104.51,226.8,136.08,238.14,601.01,Single-ply,SBD,M
Boys,109.77,3,Nivardo Miranda,Borger,107.23,233.6,142.88,215.46,591.94,Single-ply,SBD,M
Boys,109.77,4,Todd Padilla,Friona,101.6,174.63,136.08,201.85,512.56,Single-ply,SBD,M
Boys,109.77,5,Matt Knoll,Bovina,102.06,176.9,127.01,188.24,492.15,Single-ply,SBD,M
Boys,109.77,6,Aaron Castenda,Bovina,100.7,174.63,102.06,163.29,439.98,Single-ply,SBD,M
Boys,109.77,7,Dakota Wilson,White Deer,102.33,136.08,97.52,170.1,403.7,Single-ply,SBD,M
Boys,109.77,8,Brady Roy,White Deer,103.87,142.88,83.91,158.76,385.55,Single-ply,SBD,M
Boys,109.77,9,Josh Brown #11,Panhandle,107.32,158.76,81.65,142.88,383.29,Single-ply,SBD,M
Boys,109.77,10,Edwin Carillo,Bovina,106.59,156.49,86.18,124.74,367.41,Single-ply,SBD,M
Boys,109.77,11,Christian Campos,Muleshoe,107.23,108.86,77.11,136.08,322.05,Single-ply,SBD,M
Boys,124.74,1,Dallas Green #3,Borger,111.31,272.16,156.49,226.8,655.44,Single-ply,SBD,M
Boys,124.74,2,Eric Martinez,Olton,116.39,247.21,149.69,229.06,625.96,Single-ply,SBD,M
Boys,124.74,3,Emiliano Renteria,Lamesa,117.75,222.26,117.93,213.19,553.38,Single-ply,SBD,M
Boys,124.74,4,Cristian Murga,Dumas,112.85,183.7,117.93,222.26,523.9,Single-ply,SBD,M
Boys,124.74,5,Dallam Read,Dalhart,116.48,192.78,106.59,190.51,489.88,Single-ply,SBD,M
Boys,124.74,6,Alex Favela,Borger,120.66,192.78,99.79,195.04,487.61,Single-ply,SBD,M
Boys,124.74,7,Jason Olvera,Bovina,120.2,181.44,102.06,176.9,460.4,Single-ply,SBD,M
Boys,124.74,8,Ty Fisher,Bushland,110.13,127.01,102.06,147.42,376.48,Single-ply,SBD,M
Boys,124.74,DQ,Matt Abbott,Canyon,122.38,183.7,,,,Single-ply,SBD,M
Boys,124.74,DQ,Homero Ramirez,Floydada,112.13,,,,,Single-ply,SBD,M
Boys,124.74,DQ,Carlos García,Sunray,110.22,181.44,108.86,,,Single-ply,SBD,M
Boys,124.74+,1,Clayton Smiley,Friona,151.05,272.16,158.76,226.8,657.71,Single-ply,SBD,M
Boys,124.74+,2,Tanner Thomason,Plains,126.82,226.8,124.74,244.94,596.47,Single-ply,SBD,M
Boys,124.74+,3,Matthew Olivarez,Sudan,150.59,231.33,142.88,215.46,589.67,Single-ply,SBD,M
Boys,124.74+,4,Fred McKinney,Borger,133.54,222.26,131.54,213.19,566.99,Single-ply,SBD,M
Boys,124.74+,5,Marquise Trevino,Muleshoe,133.81,204.12,127.01,226.8,557.92,Single-ply,SBD,M
Boys,124.74+,6,Steven Manahan,Levelland,128.37,204.12,136.08,204.12,544.31,Single-ply,SBD,M
Boys,124.74+,7,Corey Williams,Plainview,132.63,217.72,106.59,215.46,539.77,Single-ply,SBD,M
Boys,124.74+,8,Xavier Allen,Canyon,132.27,199.58,117.93,190.51,508.02,Single-ply,SBD,M
Boys,124.74+,9,Daniel Meza,Friona,158.76,204.12,117.93,185.97,508.02,Single-ply,SBD,M
Boys,124.74+,10,Gerardo Martinez,Plains,127.73,185.97,97.52,181.44,464.93,Single-ply,SBD,M
Boys,124.74+,11,Jobe Allen,Stinnett West Texas,133.9,188.24,111.13,158.76,458.13,Single-ply,SBD,M
Boys,,NS,Zach Lewis,Stinnett West Texas,,,,,,Single-ply,SBD,M
Boys,,NS,Colby Beardon,Plains,,,,,,Single-ply,SBD,M
Boys,,NS,Alex Barrientes,Plains,,,,,,Single-ply,SBD,M
Boys,,NS,Edward Valdez,Plains,,,,,,Single-ply,SBD,M
Boys,,NS,Shane Smith,Panhandle,,,,,,Single-ply,SBD,M
Boys,,NS,Librado Chavarria,Floydada,,,,,,Single-ply,SBD,M
Boys,,NS,Abdu Ayra,Dumas,,,,,,Single-ply,SBD,M
Boys,,NS,Landon Oelke,Dalhart,,,,,,Single-ply,SBD,M
Boys,,NS,Lane Miller,Dalhart,,,,,,Single-ply,SBD,M
Boys,,NS,O'Scotty Castro,Dalhart,,,,,,Single-ply,SBD,M
Boys,,NS,Andrew Feese,Dumas,,,,,,Single-ply,SBD,M
Boys,,NS,Justin Geraldizo,Borger,,,,,,Single-ply,SBD,M
