Division,WeightClassKg,Place,Name,Team,BodyweightKg,Best3SquatKg,Best3BenchKg,Best3DeadliftKg,TotalKg,Equipment,Event,Sex
Boys,51.71,1,Isaac Moreno,Castroville Medina Valley,51.26,156.49,77.11,161.03,394.63,Single-ply,SBD,M
Boys,51.71,2,Brian Lazo,Crystal City,51.53,156.49,83.91,131.54,371.95,Single-ply,SBD,M
Boys,51.71,3,Eric Lopez,Castroville Medina Valley,51.17,133.81,74.84,149.69,358.34,Single-ply,SBD,M
Boys,51.71,4,Edward Fonseca,San Antonio Memorial,51.71,122.47,83.91,142.88,349.27,Single-ply,SBD,M
Boys,51.71,5,Adrian Churchill,Floresville,51.07,102.06,74.84,129.27,306.17,Single-ply,SBD,M
Boys,51.71,6,John Acosta,Crystal City,50.17,111.13,61.23,122.47,294.84,Single-ply,SBD,M
Boys,55.79,1,Carlos Garcia Alanis,San Antonio Southwest Legacy,54.61,115.67,63.5,142.88,322.05,Single-ply,SBD,M
Boys,55.79,2,Daniel García,Floresville,54.7,113.4,65.77,136.08,315.25,Single-ply,SBD,M
Boys,55.79,3,Christian Salazar,San Antonio Kennedy,54.7,113.4,61.23,136.08,310.71,Single-ply,SBD,M
Boys,55.79,4,Tommy Bannon,San Antonio Cole,54.88,113.4,56.7,131.54,301.64,Single-ply,SBD,M
Boys,55.79,5,Orlando Mata,Crystal City,55.79,99.79,56.7,145.15,301.64,Single-ply,SBD,M
Boys,55.79,6,Yahil Sastre,San Antonio Cole,55.79,108.86,61.23,129.27,299.37,Single-ply,SBD,M
Boys,59.87,1,Fabian Bazan,Castroville Medina Valley,59.69,217.72,115.67,183.7,517.1,Single-ply,SBD,M
Boys,59.87,2,Josh Bazan,Castroville Medina Valley,59.24,170.1,102.06,185.97,458.13,Single-ply,SBD,M
Boys,59.87,3,Rene Jimenez,San Antonio Memorial,59.87,149.69,79.38,158.76,387.82,Single-ply,SBD,M
Boys,59.87,4,Virgil Luna,Crystal City,59.87,142.88,72.57,156.49,371.95,Single-ply,SBD,M
Boys,59.87,DQ,Chase Hafer,San Antonio Cole,59.87,,,,,Single-ply,SBD,M
Boys,59.87,DQ,Joshua Legaspe,San Antonio Cole,59.87,,,,,Single-ply,SBD,M
Boys,67.13,2,Drake Moya,Beeville Jones,63.78,183.7,104.33,188.24,476.27,Single-ply,SBD,M
Boys,67.13,3,Jose Valdez,Castroville Medina Valley,65.41,179.17,104.33,183.7,467.2,Single-ply,SBD,M
Boys,67.13,4,Vincent Villanueva,Floresville,66.5,176.9,97.52,188.24,462.66,Single-ply,SBD,M
Boys,67.13,5,Diego Morales,Castroville Medina Valley,60.24,161.03,106.59,183.7,451.32,Single-ply,SBD,M
Boys,67.13,6,Richard Ruiz #2,San Antonio Southside,62.87,142.88,90.72,149.69,383.29,Single-ply,SBD,M
Boys,67.13,7,Ramon Gutierrez,Center Point,63.87,124.74,79.38,138.35,342.46,Single-ply,SBD,M
Boys,67.13,8,Michael Horton,Center Point,60.51,111.13,70.31,151.95,333.39,Single-ply,SBD,M
Boys,67.13,9,Johan Gutierrez,Center Point,64.05,111.13,68.04,136.08,315.25,Single-ply,SBD,M
Boys,67.13,10,Dylan Kelly,Beeville Jones,65.41,106.59,68.04,133.81,308.44,Single-ply,SBD,M
Boys,67.13,11,Avery Fiedler,Center Point,62.23,102.06,47.63,136.08,285.76,Single-ply,SBD,M
Boys,67.13,DQ,Chris Reed,San Antonio Cole,67.13,,,,,Single-ply,SBD,M
Boys,67.13,DQ,Jose Ramirez #13,San Antonio Southside,64.77,,,,,Single-ply,SBD,M
Boys,74.84,1,Orlando Gutierrez,Crystal City,67.4,260.82,95.25,235.87,591.94,Single-ply,SBD,M
Boys,74.84,2,Valdez Kevin,Castroville Medina Valley,70.31,204.12,127.01,226.8,557.92,Single-ply,SBD,M
Boys,74.84,4,Marco Burkman-Fliag,San Antonio Cole,70.4,197.31,111.13,188.24,496.68,Single-ply,SBD,M
Boys,74.84,5,Denis Bielski,Beeville Jones,73.84,172.37,106.59,210.92,489.88,Single-ply,SBD,M
Boys,74.84,6,Seth Bullard,Castroville Medina Valley,74.84,170.1,113.4,183.7,467.2,Single-ply,SBD,M
Boys,74.84,7,Juan Guzman,Crystal City,73.48,183.7,99.79,170.1,453.59,Single-ply,SBD,M
Boys,74.84,8,Phillip Gutierrez,Beeville Jones,71.3,172.37,108.86,156.49,437.72,Single-ply,SBD,M
Boys,74.84,9,Alex Villarreal,San Antonio Memorial,70.85,154.22,102.06,176.9,433.18,Single-ply,SBD,M
Boys,74.84,10,Gene Ratliff,Floresville,69.31,147.42,86.18,136.08,369.68,Single-ply,SBD,M
Boys,74.84,11,Justin Guerrero,San Antonio Southside,71.49,145.15,72.57,151.95,369.68,Single-ply,SBD,M
Boys,74.84,12,Alan Hernandez #8,San Antonio Memorial,74.84,154.22,63.5,136.08,353.8,Single-ply,SBD,M
Boys,74.84,13,Alvaro Bustamante,Center Point,70.94,117.93,56.7,147.42,322.05,Single-ply,SBD,M
Boys,74.84,DQ,Ron Resendiz,San Antonio Memorial,74.84,,,,,Single-ply,SBD,M
Boys,74.84,DQ,Joey Medina,San Antonio Cole,74.84,,,,,Single-ply,SBD,M
Boys,74.84,DQ,Jon Lomas,Crystal City,74.12,,,,,Single-ply,SBD,M
Boys,74.84,DQ,Neil Vallero,San Antonio Southside,74.84,174.63,,,,Single-ply,SBD,M
Boys,82.1,1,Isaac Garcia,Crystal City,77.66,188.24,104.33,206.38,498.95,Single-ply,SBD,M
Boys,82.1,2,Nathan Delgado,Crystal City,82.1,185.97,113.4,172.37,471.74,Single-ply,SBD,M
Boys,82.1,3,Roman Mendoza,San Antonio Southside,81.19,195.04,102.06,170.1,467.2,Single-ply,SBD,M
Boys,82.1,4,Andrew Quinjano,San Antonio Southside,77.93,174.63,102.06,183.7,460.4,Single-ply,SBD,M
Boys,82.1,5,Haiden Hass,Center Point,81.65,158.76,79.38,165.56,403.7,Single-ply,SBD,M
Boys,82.1,6,Ammon Jones,San Antonio Cole,78.93,133.81,72.57,165.56,371.95,Single-ply,SBD,M
Boys,89.81,1,Edward Zaragoza,San Antonio Memorial,89.81,247.21,154.22,235.87,637.3,Single-ply,SBD,M
Boys,89.81,3,Isaac Santos,Castroville Medina Valley,87.91,219.99,136.08,226.8,582.87,Single-ply,SBD,M
Boys,89.81,4,Joe Montoya,Beeville Jones,89.09,204.12,133.81,183.7,521.63,Single-ply,SBD,M
Boys,89.81,6,Salomon Vasquez,San Antonio Southwest Legacy,87.91,163.29,102.06,188.24,453.59,Single-ply,SBD,M
Boys,89.81,7,Austin Montanez,San Antonio Cole,88.18,181.44,83.91,183.7,449.06,Single-ply,SBD,M
Boys,89.81,8,Marcus Gutierrez,Beeville Jones,86.55,172.37,92.99,181.44,446.79,Single-ply,SBD,M
Boys,89.81,9,Cory Poole,Beeville Jones,87,147.42,102.06,151.95,401.43,Single-ply,SBD,M
Boys,89.81,10,Christopher Martinez,San Antonio Southside,82.55,136.08,90.72,127.01,353.8,Single-ply,SBD,M
Boys,89.81,11,Joseph Rodriguez,San Antonio Kennedy,84.28,68.04,43.09,124.74,235.87,Single-ply,SBD,M
Boys,89.81,DQ,Kane Numera,Floresville,89.81,,,,,Single-ply,SBD,M
Boys,99.79,1,Gianmarcos Villafane,Castroville Medina Valley,92.8,247.21,124.74,226.8,598.74,Single-ply,SBD,M
Boys,99.79,2,Jake Arroyos,Beeville Jones,97.79,229.06,136.08,210.92,576.06,Single-ply,SBD,M
Boys,99.79,4,Romano Villanueva,San Antonio Kennedy,98.16,145.15,90.72,163.29,399.16,Single-ply,SBD,M
Boys,99.79,5,Corey Hunter,San Antonio Cole,94.89,124.74,68.04,138.35,331.12,Single-ply,SBD,M
Boys,99.79,6,Jonathon Rodriguez,San Antonio Kennedy,98.34,102.06,56.7,129.27,288.03,Single-ply,SBD,M
Boys,99.79,DQ,Patrick Rhoads,San Antonio Cole,99.79,,,,,Single-ply,SBD,M
Boys,109.77,1,Spencer Payne,Castroville Medina Valley,109.41,256.28,165.56,233.6,655.44,Single-ply,SBD,M
Boys,109.77,3,Joe Gutierrez,Crystal City,107.41,244.94,104.33,192.78,542.04,Single-ply,SBD,M
Boys,109.77,4,Tim Gomez,San Antonio Memorial,108.23,195.04,142.88,181.44,519.36,Single-ply,SBD,M
Boys,109.77,5,Erik Diaz,San Antonio Southside,103.69,192.78,115.67,190.51,498.95,Single-ply,SBD,M
Boys,109.77,6,Jose Aleman,San Antonio Southside,107.59,185.97,117.93,176.9,480.81,Single-ply,SBD,M
Boys,109.77,7,Josh Perieda,San Antonio Southwest Legacy,108.59,172.37,115.67,181.44,469.47,Single-ply,SBD,M
Boys,109.77,DQ,Frank Alvarez,San Antonio Southwest Legacy,102.06,,,,,Single-ply,SBD,M
Boys,109.77,DQ,Artemio Hernandez,San Antonio Kennedy,109.77,,,,,Single-ply,SBD,M
Boys,109.77,DQ,Mathew Polasek,Floresville,108.86,,,,,Single-ply,SBD,M
Boys,109.77,DQ,Josh Serenil,Floresville,108.32,190.51,,,,Single-ply,SBD,M
Boys,109.77,DQ,Brian Zapata,San Antonio Southside,101.42,,,,,Single-ply,SBD,M
Boys,109.77,DQ,Angel Banderas,San Antonio Memorial,109.5,,,,,Single-ply,SBD,M
Boys,124.74,2,Fernando Martinez #4,San Antonio Southwest Legacy,120.47,224.53,108.86,188.24,521.63,Single-ply,SBD,M
Boys,124.74,3,Isaiah Ulibarri,San Antonio Southwest Legacy,124.38,210.92,95.25,188.24,494.42,Single-ply,SBD,M
Boys,124.74,4,Ivan Garcia #1,San Antonio Memorial,116.12,154.22,102.06,165.56,421.84,Single-ply,SBD,M
Boys,124.74,DQ,Isaiah Ibarra,San Antonio Southwest Legacy,124.74,,,,,Single-ply,SBD,M
Boys,124.74,DQ,Juan Huizar,San Antonio Southwest Legacy,119.02,,,,,Single-ply,SBD,M
Boys,124.74,DQ,Maunel Reyna,San Antonio Kennedy,115.03,,,,,Single-ply,SBD,M
Boys,124.74,DQ,Bobby Rocha,Crystal City,120.56,172.37,,,,Single-ply,SBD,M
Boys,124.74+,1,Donnie Brown,Floresville,127.01,219.99,147.42,219.99,587.4,Single-ply,SBD,M
Boys,124.74+,2,Jose Vazquez,San Antonio Memorial,125.92,249.48,127.01,190.51,566.99,Single-ply,SBD,M
Boys,124.74+,3,Pedro Castillo,Floresville,136.44,208.65,156.49,197.31,562.45,Single-ply,SBD,M
Boys,124.74+,5,Robert Lopez,San Antonio Memorial,143.7,190.51,97.52,183.7,471.74,Single-ply,SBD,M
