Division,WeightClassKg,Place,Name,Team,BodyweightKg,Best3SquatKg,Best3BenchKg,Best3DeadliftKg,TotalKg,Equipment,Event,Sex,BirthDate
Boys,55.79,1,Caden Rocha,Panhandle,55.79,158.76,79.38,142.88,381.02,Single-ply,SBD,M,
Boys,67.13,1,Brady Tiemann,Vega,67.13,183.7,117.93,215.46,517.1,Single-ply,SBD,M,
Boys,74.84,1,Stewart Skiles,Vega,73.39,235.87,106.59,229.06,571.53,Single-ply,SBD,M,
Boys,74.84,2,Riley Tiemann,Vega,74.84,208.65,115.67,242.67,566.99,Single-ply,SBD,M,
Boys,74.84,3,Dylan Davis,Panhandle,73.57,204.12,104.33,179.17,487.61,Single-ply,SBD,M,
Boys,74.84,4,Whitman Martin,Panhandle,72.57,165.56,83.91,167.83,417.3,Single-ply,SBD,M,
Boys,74.84,5,Gage Garrett,Panhandle,73.3,147.42,79.38,129.27,356.07,Single-ply,SBD,M,
Boys,74.84,6,Hank Heck,Panhandle,71.21,131.54,72.57,136.08,340.19,Single-ply,SBD,M,
Boys,82.1,1,Mike Theis,Panhandle,80.83,172.37,129.27,170.1,471.74,Single-ply,SBD,M,
Boys,82.1,2,McCade Smith,Panhandle,81.47,147.42,86.18,161.03,394.63,Single-ply,SBD,M,
Boys,89.81,1,Carson McCall,Vega,82.92,197.31,97.52,213.19,508.02,Single-ply,SBD,M,
Boys,89.81,2,Clay Wagner,Panhandle,87.18,183.7,102.06,151.95,437.72,Single-ply,SBD,M,
Boys,89.81,3,Aiden Harris,Panhandle,84.46,167.83,86.18,163.29,417.3,Single-ply,SBD,M,
Boys,99.79,1,Hayden Forbes,Panhandle,97.07,185.97,99.79,181.44,467.2,Single-ply,SBD,M,
Boys,99.79,2,Ezekiel Coneway,Vega,91.81,165.56,81.65,161.03,408.23,Single-ply,SBD,M,
Boys,139.71,1,Jacob Hernandez,Vega,127.28,272.16,138.35,185.97,596.47,Single-ply,SBD,M,
