﻿BDFPF BK DEADLIFT EQUIPPED 2011
BK DEADLIFT  EQUIPPED 2011 Aseau
                                       BW                   NAME                         Voornaam        CLUB             AGE CAT        BW      1       2       3        4       POINTS
1                                  1   - 70 KG Lerot                                     Viviane     V   Castors          52        M3   66,7    105     112,5   117,5            92,44
1                                  1   - 80 KG Dechamps                                  Nadege      V   Castors          14        T1   74,3    141     145     147,5    150     107,06
1                                  1   67,5 KG De Vissher                                Geovanni    M   Power Lebbeke    17        T2   62,3    170     181                      141,65
2                                  2   67,5 KG Mignolet                                  Geoffrey    M   Castors          16        T2   63,1    167,5   177,5   -181,5           137,19
3                                  1   67,5 KG Eeckhout                                  Laurens     M   Patton Team      15        T1   66,3    160     170     -175             125,41
4                                  3   67,5 KG Cuylle                                    Angelo      M   Isogym           17        T2   66,3    140     150     155              114,34
5                                  2   67,5 KG Van Gucht                                 Maikel      M   Power lebbeke    15        T1   65,5    135     150                      111,90
1                                  1                        75 KG Sudarminto             Indra       M   Planet Fitness   20        JR   73,9    230     250     260,5    -265    175,13
2                                  1                        75 KG Hallewaert             Bart        M   Isogym           42        M1   74,9    215     232,5   -242,5           154,66
3                                  1                        75 KG Callemeyn              Johny       M   Fit 4 fun        57        M4   74,3    170     180     -185             120,49
1                                  1   82,5 KG Remy                                      Roger       M   Castors          57        M4   75,4    220     235     247,5    255     163,77
1                                  1   90 KG Verbeke                                     Beny        M   Isogym           45        M2   86,2    270     292,5   300      305     180,39
2                                  1   90 KG Wouters                                     Sammy       M   Fit 4 Fun        22        JR   88,3    150     160     -170             94,75
1                                  1   110 KG Vermote                                    Gianni      M   Isogym           38        SR   106,8   235     245     255              137,90
1                                  1   125 KG Dechamps                                   Jerome      M   Castors          22        JR   122,2   270     285     292,5    300,5   153,47
2                                  1                        125 KG Vannieuwenh Mathieu               M   Isogym           19        T3   111,0   200     215     -220             115,09
3                                  1   125 KG Van Hove                                   Gilbert     M   Castors          60        M5   111,7   170     190     -203             101,57
1                                  1   145 KG Dechamps                                   Sebastien   M   Castors          17        T2   127,0   270     280     -287,5           145,21
2                                  1   145 KG Goovaerts                                  Marc        M   Patton Team      53        M3   125,4   210     220     240              124,92
NIEUW RECORD / NOUVEAU RECORD
BSTE ATLEET / MEILLEUR ATLETE
12 - 03 - 2011 Aiseau
